{
	"version": [9,0,false],
	"name": [1,0,false],
	"culture": [3,2,false],
	"cultureblessing": [4,2,false],
	"standardofliving": [5,11,true],
	"treasure": [1,27,true],
	"carriedtreasure": [1,28,true],
	"calling": [5,2,false],
	"shadowpath": [4,11,false],
	"lifepath": [3,11,false],
	"age": [3,18,false],
	"feature1": [3,17,false],
	"feature2": [4,17,false],
	"feature3": [5,17,false],
	"skillpointsspent": [3,26,false],
	"skillpointsavailable": [4,26,true],
	"skillpointstotal": [5,26,false],
	"adventurepointsspent": [3,29,false],
	"adventurepointsavailable": [4,29,true],
	"adventurepointstotal": [5,29,false],
	"strength": [6,6,false],
	"strengthtn": [7,2,false],
	"heart": [6,14,false],
	"hearttn": [7,10,false],
	"wits": [6,22,false],
	"witstn": [7,18,false],
	"valour": [16,14,false],
	"wisdom": [16,22,false],
	"endurance": [7,26,true],
	"maxendurance": [8,2,false],
	"fatigue": [8,26,true],
	"encumbrance": [9,26,true],
	"load": [10,26,false],
	"availendurance": [11,26,false],
	"hope": [7,29,true],
	"maxhope": [8,10,false],
	"shadowscars": [8,29,true],
	"shadow": [9,29,true],
	"totalshadow": [10,29,false],
	"availhope": [11,29,false],
	"weary": [13,24,false],
	"miserable": [14,24,false],
	"wounded": [15,24,true],
	"wounddaysleft": [15,26,true],
	"woundtreated": [15,28,true],
	"otherconditions": [13,27,true],
	"parry": [8,18,false],
	"reward1": [17,8,false],
	"reward2": [18,8,false],
	"reward3": [19,8,false],
	"reward4": [20,8,false],
	"reward5": [17,11,false],
	"reward6": [18,11,false],
	"reward7": [19,11,false],
	"reward8": [20,11,false],
	"virtue1": [17,16,false],
	"virtue2": [18,16,false],
	"virtue3": [19,16,false],
	"virtue4": [20,16,false],
	"virtue5": [17,19,false],
	"virtue6": [18,19,false],
	"virtue7": [19,19,false],
	"virtue8": [20,19,false],
	"skillawe": [10,0,false],
	"skillathletics": [11,0,false],
	"skillawareness": [12,0,false],
	"skillhunting": [13,0,false],
	"skillsong": [14,0,false],
	"skillcraft": [15,0,false],
	"skillenhearten": [10,8,false],
	"skilltravel": [11,8,false],
	"skillinsight": [12,8,false],
	"skillhealing": [13,8,false],
	"skillcourtesy": [14,8,false],
	"skillbattle": [15,8,false],
	"skillpersuade": [10,16,false],
	"skillstealth": [11,16,false],
	"skillscan": [12,16,false],
	"skillexplore": [13,16,false],
	"skillriddle": [14,16,false],
	"skilllore": [15,16,false],
	"proficiencyaxes": [17,2,false],
	"proficiencybows": [18,2,false],
	"proficiencyspears": [19,2,false],
	"proficiencyswords": [20,2,false],
	"usefulitem1": [18,24,false],
	"usefulitem1skill": [18,28,false],
	"usefulitem2": [19,24,false],
	"usefulitem2skill": [19,28,false],
	"usefulitem3": [20,24,false],
	"usefulitem3skill": [20,28,false],
	"usefulitem4": [21,24,false],
	"usefulitem4skill": [21,28,false],
	"weapon1equipped": [22,0,false],
	"weapon1name": [22,1,false],
	"weapon1dmg": [22,2,false],
	"weapon1edge": [22,3,false],
	"weapon1injury": [22,4,false],
	"weapon1proficiency": [22,6,false],
	"weapon1notes": [22,9,false],
	"weapon1enc": [22,10,false],
	"weapon1handedness": [22,11,false],
	"weapon1melee": [22,14,false],
	"weapon1ranged": [22,15,false],
	"weapon2equipped": [23,0,false],
	"weapon2name": [23,1,false],
	"weapon2dmg": [23,2,false],
	"weapon2edge": [23,3,false],
	"weapon2injury": [23,4,false],
	"weapon2proficiency": [23,6,false],
	"weapon2notes": [23,9,false],
	"weapon2enc": [23,10,false],
	"weapon2handedness": [23,11,false],
	"weapon2melee": [23,14,false],
	"weapon2ranged": [23,15,false],
	"weapon3equipped": [24,0,false],
	"weapon3name": [24,1,false],
	"weapon3dmg": [24,2,false],
	"weapon3edge": [24,3,false],
	"weapon3injury": [24,4,false],
	"weapon3proficiency": [24,6,false],
	"weapon3notes": [24,9,false],
	"weapon3enc": [24,10,false],
	"weapon3handedness": [24,11,false],
	"weapon3melee": [24,14,false],
	"weapon3ranged": [24,15,false],
	"weapon4equipped": [25,0,false],
	"weapon4name": [25,1,false],
	"weapon4dmg": [25,2,false],
	"weapon4edge": [25,3,false],
	"weapon4injury": [25,4,false],
	"weapon4proficiency": [25,6,false],
	"weapon4notes": [25,9,false],
	"weapon4enc": [25,10,false],
	"weapon4handedness": [25,11,false],
	"weapon4melee": [25,14,false],
	"weapon4ranged": [25,15,false],
	"armour1equipped": [22,16,false],
	"armour1name": [22,17,false],
	"armour1protect": [22,18,false],
	"armour1bonus": [22,20,false],
	"armour1enc": [22,22,false],
	"armour2equipped": [23,16,false],
	"armour2name": [23,17,false],
	"armour2protect": [23,18,false],
	"armour2bonus": [23,20,false],
	"armour2enc": [23,22,false],
	"armour3equipped": [24,16,false],
	"armour3name": [24,17,false],
	"armour3protect": [24,18,false],
	"armour3bonus": [24,20,false],
	"armour3enc": [24,22,false],
	"armour4equipped": [25,16,false],
	"armour4name": [25,17,false],
	"armour4protect": [25,18,false],
	"armour4bonus": [25,20,false],
	"armour4enc": [25,22,false],
	"steedname": [23,24,false],
	"steedvigour": [25,26,false],
	"otheritem1": [23,27,false],
	"otheritem2": [24,27,false],
	"otheritem3": [25,27,false],
	"weapon1origin": [27,2,false],
	"weapon1quality1": [27,5,false],
	"weapon1quality2": [27,9,false],
	"weapon1quality3": [27,12,false],
	"weapon1bane1": [27,17,false],
	"weapon1bane2": [27,18,false],
	"weapon1curse": [27,21,false],
	"weapon2origin": [28,2,false],
	"weapon2quality1": [28,5,false],
	"weapon2quality2": [28,9,false],
	"weapon2quality3": [28,12,false],
	"weapon2bane1": [28,17,false],
	"weapon2bane2": [28,18,false],
	"weapon2curse": [28,21,false],
	"weapon3origin": [29,2,false],
	"weapon3quality1": [29,5,false],
	"weapon3quality2": [29,9,false],
	"weapon3quality3": [29,12,false],
	"weapon3bane1": [29,17,false],
	"weapon3bane2": [29,18,false],
	"weapon3curse": [29,21,false],
	"weapon4origin": [30,2,false],
	"weapon4quality1": [30,5,false],
	"weapon4quality2": [30,9,false],
	"weapon4quality3": [30,12,false],
	"weapon4bane1": [30,17,false],
	"weapon4bane2": [30,18,false],
	"weapon4curse": [30,21,false],
	"armour1origin": [31,2,false],
	"armour1quality1": [31,5,false],
	"armour1quality2": [31,9,false],
	"armour1quality3": [31,12,false],
	"armour1bane1": [31,17,false],
	"armour1bane2": [31,18,false],
	"armour1curse": [31,21,false],
	"armour2origin": [32,2,false],
	"armour2quality1": [32,5,false],
	"armour2quality2": [32,9,false],
	"armour2quality3": [32,12,false],
	"armour2bane1": [32,17,false],
	"armour2bane2": [32,18,false],
	"armour2curse": [32,21,false],
	"armour3origin": [33,2,false],
	"armour3quality1": [33,5,false],
	"armour3quality2": [33,9,false],
	"armour3quality3": [33,12,false],
	"armour3bane1": [33,17,false],
	"armour3bane2": [33,18,false],
	"armour3curse": [33,21,false],
	"armour4origin": [34,2,false],
	"armour4quality1": [34,5,false],
	"armour4quality2": [34,9,false],
	"armour4quality3": [34,12,false],
	"armour4bane1": [34,17,false],
	"armour4bane2": [34,18,false],
	"armour4curse": [34,21,false],
	"marvellous1name":[27,24,false],
	"marvellous1blessing1":[27,27,false],
	"marvellous1blessing2":[27,28,false],
	"marvellous2name":[28,24,false],
	"marvellous2blessing1":[28,27,false],
	"marvellous2blessing2":[28,28,false],
	"marvellous3name":[29,24,false],
	"marvellous3blessing1":[29,27,false],
	"marvellous3blessing2":[29,28,false],
	"marvellous4name":[30,24,false],
	"marvellous4blessing1":[30,27,false],
	"marvellous4blessing2":[30,28,false],
	"marvellous5name":[31,24,false],
	"marvellous5blessing1":[31,27,false],
	"marvellous5blessing2":[31,28,false],
	"marvellous6name":[32,24,false],
	"marvellous6blessing1":[32,27,false],
	"marvellous6blessing2":[32,28,false],
	"marvellous7name":[33,24,false],
	"marvellous7blessing1":[33,27,false],
	"marvellous7blessing2":[3,28,false],
	"marvellous8name":[34,24,false],
	"marvellous8blessing1":[34,27,false],
	"marvellous8blessing2":[34,28,false]
}